; ModuleID = 'func_call_out.bc'
source_filename = "func_call.c"
target datalayout = "e-m:e-p270:32:32-p271:32:32-p272:64:64-i64:64-f80:128-n8:16:32:64-S128"
target triple = "x86_64-pc-linux-gnu"

@.str = private unnamed_addr constant [28 x i8] c"Reading value 0x%x from %p\0A\00", align 1
@.str.1 = private unnamed_addr constant [26 x i8] c"Writing value 0x%x to %p\0A\00", align 1

; Function Attrs: noinline nounwind optnone sspstrong uwtable
define dso_local void @log_mem_access(i8* %0, i32 %1, i32 %2) #0 {
  %4 = alloca i8*, align 8
  %5 = alloca i32, align 4
  %6 = alloca i32, align 4
  store i8* %0, i8** %4, align 8
  store i32 %1, i32* %5, align 4
  store i32 %2, i32* %6, align 4
  %7 = load i32, i32* %6, align 4
  %8 = icmp eq i32 %7, 0
  br i1 %8, label %9, label %13

9:                                                ; preds = %3
  %10 = load i32, i32* %5, align 4
  %11 = load i8*, i8** %4, align 8
  %12 = call i32 (i8*, ...) @printf(i8* getelementptr inbounds ([28 x i8], [28 x i8]* @.str, i64 0, i64 0), i32 %10, i8* %11)
  br label %21

13:                                               ; preds = %3
  %14 = load i32, i32* %6, align 4
  %15 = icmp eq i32 %14, 1
  br i1 %15, label %16, label %20

16:                                               ; preds = %13
  %17 = load i32, i32* %5, align 4
  %18 = load i8*, i8** %4, align 8
  %19 = call i32 (i8*, ...) @printf(i8* getelementptr inbounds ([26 x i8], [26 x i8]* @.str.1, i64 0, i64 0), i32 %17, i8* %18)
  br label %20

20:                                               ; preds = %16, %13
  br label %21

21:                                               ; preds = %20, %9
  ret void
}

declare i32 @printf(i8*, ...) #1

; Function Attrs: noinline nounwind optnone sspstrong uwtable
define dso_local i32 @main() #0 {
  %1 = alloca i32, align 4
  %2 = alloca i32, align 4
  %3 = alloca i32*, align 8
  %4 = alloca i32**, align 8
  %5 = bitcast i32* %1 to i8*
  call void @log_mem_access(i8* %5, i32 0, i32 1)
  store i32 0, i32* %1, align 4
  %6 = bitcast i32* %2 to i8*
  call void @log_mem_access(i8* %6, i32 1, i32 1)
  store i32 1, i32* %2, align 4
  %7 = bitcast i32** %3 to i8*
  %8 = ptrtoint i32* %2 to i32
  call void @log_mem_access(i8* %7, i32 %8, i32 1)
  store i32* %2, i32** %3, align 8
  %9 = bitcast i32*** %4 to i8*
  %10 = ptrtoint i32** %3 to i32
  call void @log_mem_access(i8* %9, i32 %10, i32 1)
  store i32** %3, i32*** %4, align 8
  ret i32 0
}

attributes #0 = { noinline nounwind optnone sspstrong uwtable "frame-pointer"="all" "min-legal-vector-width"="0" "no-trapping-math"="true" "stack-protector-buffer-size"="8" "target-cpu"="x86-64" "target-features"="+cx8,+fxsr,+mmx,+sse,+sse2,+x87" "tune-cpu"="generic" }
attributes #1 = { "frame-pointer"="all" "no-trapping-math"="true" "stack-protector-buffer-size"="8" "target-cpu"="x86-64" "target-features"="+cx8,+fxsr,+mmx,+sse,+sse2,+x87" "tune-cpu"="generic" }

!llvm.module.flags = !{!0, !1, !2, !3, !4}
!llvm.ident = !{!5}

!0 = !{i32 1, !"wchar_size", i32 4}
!1 = !{i32 7, !"PIC Level", i32 2}
!2 = !{i32 7, !"PIE Level", i32 2}
!3 = !{i32 7, !"uwtable", i32 1}
!4 = !{i32 7, !"frame-pointer", i32 2}
!5 = !{!"clang version 13.0.0"}
